{
  "$schema": "https://docs.renovatebot.com/renovate-schema.json",

  "extends": [
    "config:best-practices",
    ":label(renovate)",
    ":timezone(Europe/Berlin)"
  ],

  "minimumReleaseAge": "7",
  "prHourlyLimit": 0,
  "enabledManagers": ["dockerfile", "gomod"],
  "postUpdateOptions": ["gomodTidy", "gomodUpdateImportPaths"]
}
